Id,Name,Description,Created on,Updated on,Owner,Issues count,Repo URL,Commits URL,Languages URL,Languages
144066998,allegro,"('allegro',)",144066998,2018-08-08T20:59:32Z,2018-08-11T03:49:59Z,aseprite,https://api.github.com/repos/aseprite/allegro,https://api.github.com/repos/aseprite/allegro/commits,https://api.github.com/repos/aseprite/allegro/languages,"C, Objective-C, C++, CMake, Assembly"
34803007,api,"('api',)",34803007,2015-04-29T15:48:25Z,2021-01-03T08:01:06Z,aseprite,https://api.github.com/repos/aseprite/api,https://api.github.com/repos/aseprite/api/commits,https://api.github.com/repos/aseprite/api/languages,
23129458,aseprite,"('aseprite',)",23129458,2014-08-19T23:44:50Z,2021-01-04T13:28:48Z,aseprite,https://api.github.com/repos/aseprite/aseprite,https://api.github.com/repos/aseprite/aseprite/commits,https://api.github.com/repos/aseprite/aseprite/languages,"C++, CMake, Shell, C, Objective-C++"
159361871,Aseprite-Script-Examples,"('Aseprite-Script-Examples',)",159361871,2018-11-27T16:00:40Z,2020-12-04T19:13:05Z,aseprite,https://api.github.com/repos/aseprite/Aseprite-Script-Examples,https://api.github.com/repos/aseprite/Aseprite-Script-Examples/commits,https://api.github.com/repos/aseprite/Aseprite-Script-Examples/languages,Lua
94930004,benchmark,"('benchmark',)",94930004,2017-06-20T19:59:00Z,2018-07-11T08:52:57Z,aseprite,https://api.github.com/repos/aseprite/benchmark,https://api.github.com/repos/aseprite/benchmark/commits,https://api.github.com/repos/aseprite/benchmark/languages,"C++, Python, CMake, C, Shell"
164110722,better-enums,"('better-enums',)",164110722,2019-01-04T13:27:31Z,2019-01-04T13:27:33Z,aseprite,https://api.github.com/repos/aseprite/better-enums,https://api.github.com/repos/aseprite/better-enums/commits,https://api.github.com/repos/aseprite/better-enums/languages,"C++, CMake, Python, Makefile"
168177349,breakpad,"('breakpad',)",168177349,2019-01-29T15:24:36Z,2019-01-29T15:24:41Z,aseprite,https://api.github.com/repos/aseprite/breakpad,https://api.github.com/repos/aseprite/breakpad/commits,https://api.github.com/repos/aseprite/breakpad/languages,"C++, Makefile, C, Shell, Objective-C, Objective-C++, Python, M4, Assembly, Go, Batchfile"
72530972,clip,"('clip',)",72530972,2016-11-01T11:44:52Z,2020-10-13T13:49:00Z,aseprite,https://api.github.com/repos/aseprite/clip,https://api.github.com/repos/aseprite/clip/commits,https://api.github.com/repos/aseprite/clip/languages,"C++, Objective-C++, CMake"
75745073,cmark,"('cmark',)",75745073,2016-12-06T15:35:44Z,2020-12-06T17:57:20Z,aseprite,https://api.github.com/repos/aseprite/cmark,https://api.github.com/repos/aseprite/cmark/commits,https://api.github.com/repos/aseprite/cmark/languages,"C, C++, Python, CMake, Racket, Makefile, GCC Machine Description, Ruby, Batchfile"
28748944,contributor_covenant,"('contributor_covenant',)",28748944,2015-01-03T16:44:54Z,2016-01-26T05:42:29Z,aseprite,https://api.github.com/repos/aseprite/contributor_covenant,https://api.github.com/repos/aseprite/contributor_covenant/commits,https://api.github.com/repos/aseprite/contributor_covenant/languages,
134918672,cpp-httplib,"('cpp-httplib',)",134918672,2018-05-26T01:13:54Z,2018-05-27T15:38:14Z,aseprite,https://api.github.com/repos/aseprite/cpp-httplib,https://api.github.com/repos/aseprite/cpp-httplib/commits,https://api.github.com/repos/aseprite/cpp-httplib/languages,"C++, Makefile, HTML"
168447034,crashpad,"('crashpad',)",168447034,2019-01-31T02:08:18Z,2019-01-31T02:08:23Z,aseprite,https://api.github.com/repos/aseprite/crashpad,https://api.github.com/repos/aseprite/crashpad/commits,https://api.github.com/repos/aseprite/crashpad/languages,"C++, Python, Objective-C++, C, Assembly, Objective-C"
102480347,create-dmg,"('create-dmg',)",102480347,2017-09-05T12:47:50Z,2020-08-15T16:20:46Z,aseprite,https://api.github.com/repos/aseprite/create-dmg,https://api.github.com/repos/aseprite/create-dmg/commits,https://api.github.com/repos/aseprite/create-dmg/languages,"Shell, Python, AppleScript, Ruby"
57974430,css-layout,"('css-layout',)",57974430,2016-05-03T14:12:59Z,2018-05-06T07:21:35Z,aseprite,https://api.github.com/repos/aseprite/css-layout,https://api.github.com/repos/aseprite/css-layout/commits,https://api.github.com/repos/aseprite/css-layout/languages,"C, C#, Java, JavaScript, Makefile"
36029352,curl,"('curl',)",36029352,2015-05-21T18:08:32Z,2016-02-03T15:24:04Z,aseprite,https://api.github.com/repos/aseprite/curl,https://api.github.com/repos/aseprite/curl/commits,https://api.github.com/repos/aseprite/curl/languages,"C, Python, M4, Perl, DIGITAL Command Language, CMake, C++, Makefile, Shell, Batchfile, Visual Basic, Roff, Perl 6, Assembly, Awk, Emacs Lisp"
41433585,docs,"('docs',)",41433585,2015-08-26T15:28:03Z,2020-09-17T18:27:44Z,aseprite,https://api.github.com/repos/aseprite/docs,https://api.github.com/repos/aseprite/docs/commits,https://api.github.com/repos/aseprite/docs/languages,
35633464,duktape,"('duktape',)",35633464,2015-05-14T19:56:15Z,2018-06-24T16:14:05Z,aseprite,https://api.github.com/repos/aseprite/duktape,https://api.github.com/repos/aseprite/duktape/commits,https://api.github.com/repos/aseprite/duktape/languages,"C, C++"
42200978,flic,"('flic',)",42200978,2015-09-09T19:49:10Z,2020-06-26T19:36:53Z,aseprite,https://api.github.com/repos/aseprite/flic,https://api.github.com/repos/aseprite/flic/commits,https://api.github.com/repos/aseprite/flic/languages,"C++, C, CMake"
77405537,fmt,"('fmt',)",77405537,2016-12-26T20:30:52Z,2020-04-06T18:23:03Z,aseprite,https://api.github.com/repos/aseprite/fmt,https://api.github.com/repos/aseprite/fmt/commits,https://api.github.com/repos/aseprite/fmt/languages,"C++, Python, CMake, Shell, Cuda, QMake, Ruby, HTML, Makefile, Objective-C"
42960758,freetype2,"('freetype2',)",42960758,2015-09-22T21:05:34Z,2020-12-06T05:17:30Z,aseprite,https://api.github.com/repos/aseprite/freetype2,https://api.github.com/repos/aseprite/freetype2/commits,https://api.github.com/repos/aseprite/freetype2/languages,"C, C++, Makefile, Python, DIGITAL Command Language, Objective-C, CMake, M4, Shell, Perl, HTML, Awk, sed"
249807407,fuzz,"('fuzz',)",249807407,2020-03-24T20:10:45Z,2020-08-03T19:40:11Z,aseprite,https://api.github.com/repos/aseprite/fuzz,https://api.github.com/repos/aseprite/fuzz/commits,https://api.github.com/repos/aseprite/fuzz/languages,"C++, CMake"
105226782,giflib,"('giflib',)",105226782,2017-09-29T03:41:08Z,2020-04-30T11:06:00Z,aseprite,https://api.github.com/repos/aseprite/giflib,https://api.github.com/repos/aseprite/giflib/commits,https://api.github.com/repos/aseprite/giflib/languages,"C, Makefile, Assembly, M4, CMake, Shell"
72222109,googletest,"('googletest',)",72222109,2016-10-28T16:03:32Z,2018-12-12T19:35:51Z,aseprite,https://api.github.com/repos/aseprite/googletest,https://api.github.com/repos/aseprite/googletest/commits,https://api.github.com/repos/aseprite/googletest/languages,"C++, Python, Shell, CMake, Makefile, M4, C"
36504908,gtest,"('gtest',)",36504908,2015-05-29T13:08:03Z,2018-06-24T16:14:32Z,aseprite,https://api.github.com/repos/aseprite/gtest,https://api.github.com/repos/aseprite/gtest/commits,https://api.github.com/repos/aseprite/gtest/languages,"C++, Shell, Python, CMake, Makefile"
53873216,harfbuzz,"('harfbuzz',)",53873216,2016-03-14T16:35:50Z,2018-06-24T16:12:30Z,aseprite,https://api.github.com/repos/aseprite/harfbuzz,https://api.github.com/repos/aseprite/harfbuzz/commits,https://api.github.com/repos/aseprite/harfbuzz/languages,"C++, Shell, Makefile, Objective-C, C, M4, CMake, Python, Ragel"
192359983,inja,"('inja',)",192359983,2019-06-17T14:13:16Z,2019-06-17T14:13:20Z,aseprite,https://api.github.com/repos/aseprite/inja,https://api.github.com/repos/aseprite/inja/commits,https://api.github.com/repos/aseprite/inja/languages,"C++, CMake, Python, Meson, Shell"
312608543,IXWebSocket,"('IXWebSocket',)",312608543,2020-11-13T15:10:55Z,2020-11-13T15:10:57Z,aseprite,https://api.github.com/repos/aseprite/IXWebSocket,https://api.github.com/repos/aseprite/IXWebSocket/commits,https://api.github.com/repos/aseprite/IXWebSocket/languages,"C++, Python, CMake, Shell, Makefile, JavaScript, C#, Ruby, Dockerfile, C"
93946657,json,"('json',)",93946657,2017-06-10T15:04:25Z,2019-03-15T19:25:14Z,aseprite,https://api.github.com/repos/aseprite/json,https://api.github.com/repos/aseprite/json/commits,https://api.github.com/repos/aseprite/json/languages,"C++, CMake, Makefile"
176016197,json.lua,"('json.lua',)",176016197,2019-03-16T19:34:22Z,2019-03-16T19:34:24Z,aseprite,https://api.github.com/repos/aseprite/json.lua,https://api.github.com/repos/aseprite/json.lua/commits,https://api.github.com/repos/aseprite/json.lua/languages,"Lua, Shell"
94376635,json11,"('json11',)",94376635,2017-06-14T22:03:10Z,2019-03-15T17:24:16Z,aseprite,https://api.github.com/repos/aseprite/json11,https://api.github.com/repos/aseprite/json11/commits,https://api.github.com/repos/aseprite/json11/languages,"C++, CMake, Makefile"
14802630,jsoncpp-cmake,"('jsoncpp-cmake',)",14802630,2013-11-29T13:59:41Z,2014-06-26T02:08:09Z,aseprite,https://api.github.com/repos/aseprite/jsoncpp-cmake,https://api.github.com/repos/aseprite/jsoncpp-cmake/commits,https://api.github.com/repos/aseprite/jsoncpp-cmake/languages,
137960374,katana-parser,"('katana-parser',)",137960374,2018-06-20T00:36:58Z,2018-06-20T00:37:00Z,aseprite,https://api.github.com/repos/aseprite/katana-parser,https://api.github.com/repos/aseprite/katana-parser/commits,https://api.github.com/repos/aseprite/katana-parser/languages,"C, Shell, C++, Makefile, M4"
53496040,laf,"('laf',)",53496040,2016-03-09T12:30:22Z,2021-01-04T11:42:37Z,aseprite,https://api.github.com/repos/aseprite/laf,https://api.github.com/repos/aseprite/laf/commits,https://api.github.com/repos/aseprite/laf/languages,"C++, Objective-C++, CMake, C, Objective-C"
126193203,languages,"('languages',)",126193203,2018-03-21T14:41:07Z,2020-12-10T01:50:06Z,aseprite,https://api.github.com/repos/aseprite/languages,https://api.github.com/repos/aseprite/languages/commits,https://api.github.com/repos/aseprite/languages/languages,
93963355,libarchive,"('libarchive',)",93963355,2017-06-10T20:22:16Z,2020-04-17T13:07:39Z,aseprite,https://api.github.com/repos/aseprite/libarchive,https://api.github.com/repos/aseprite/libarchive/commits,https://api.github.com/repos/aseprite/libarchive/languages,"C, Roff, CMake, M4, Objective-C, Makefile, Shell, C++, Batchfile, Dockerfile"
55091469,libpng,"('libpng',)",55091469,2016-03-30T19:29:59Z,2019-09-05T23:13:09Z,aseprite,https://api.github.com/repos/aseprite/libpng,https://api.github.com/repos/aseprite/libpng/commits,https://api.github.com/repos/aseprite/libpng/languages,"C, Shell, Roff, Makefile, CMake, Awk, M4, C++, DIGITAL Command Language, Objective-C, Assembly, Batchfile, Module Management System, Dockerfile"
18341467,libuv,"('libuv',)",18341467,2014-04-01T19:19:07Z,2019-04-02T17:41:19Z,aseprite,https://api.github.com/repos/aseprite/libuv,https://api.github.com/repos/aseprite/libuv/commits,https://api.github.com/repos/aseprite/libuv/languages,
43097236,libwebp,"('libwebp',)",43097236,2015-09-24T22:51:13Z,2020-05-18T21:14:43Z,aseprite,https://api.github.com/repos/aseprite/libwebp,https://api.github.com/repos/aseprite/libwebp/commits,https://api.github.com/repos/aseprite/libwebp/languages,"C, M4, CMake, Makefile, Python, Shell, HTML, Go"
38057485,libzip,"('libzip',)",38057485,2015-06-25T15:25:31Z,2020-05-08T15:40:31Z,aseprite,https://api.github.com/repos/aseprite/libzip,https://api.github.com/repos/aseprite/libzip/commits,https://api.github.com/repos/aseprite/libzip/languages,"C, Shell, Perl, CMake"
138333390,lua,"('lua',)",138333390,2018-06-22T18:04:11Z,2018-08-20T14:18:19Z,aseprite,https://api.github.com/repos/aseprite/lua,https://api.github.com/repos/aseprite/lua/commits,https://api.github.com/repos/aseprite/lua/languages,"C, C++, Makefile, Objective-C"
168529458,mini_chromium,"('mini_chromium',)",168529458,2019-01-31T13:27:09Z,2019-01-31T13:27:11Z,aseprite,https://api.github.com/repos/aseprite/mini_chromium,https://api.github.com/repos/aseprite/mini_chromium/commits,https://api.github.com/repos/aseprite/mini_chromium/languages,"C++, Python, Objective-C, C, Objective-C++"
16486913,msgpack-c,"('msgpack-c',)",16486913,2014-02-03T17:33:06Z,2014-02-03T17:33:06Z,aseprite,https://api.github.com/repos/aseprite/msgpack-c,https://api.github.com/repos/aseprite/msgpack-c/commits,https://api.github.com/repos/aseprite/msgpack-c/languages,
99533086,mujs,"('mujs',)",99533086,2017-08-07T03:28:33Z,2018-06-22T18:07:11Z,aseprite,https://api.github.com/repos/aseprite/mujs,https://api.github.com/repos/aseprite/mujs/commits,https://api.github.com/repos/aseprite/mujs/languages,"C, Makefile"
72552531,observable,"('observable',)",72552531,2016-11-01T16:02:51Z,2020-10-04T22:39:15Z,aseprite,https://api.github.com/repos/aseprite/observable,https://api.github.com/repos/aseprite/observable/commits,https://api.github.com/repos/aseprite/observable/languages,"C++, CMake, C"
13728551,pixman,"('pixman',)",13728551,2013-10-20T23:03:06Z,2019-10-20T03:00:17Z,aseprite,https://api.github.com/repos/aseprite/pixman,https://api.github.com/repos/aseprite/pixman/commits,https://api.github.com/repos/aseprite/pixman/languages,"C, Assembly, C++, M4, Meson, Makefile, Perl, Shell"
186673596,psd,"('psd',)",186673596,2019-05-14T17:56:53Z,2019-05-30T01:25:52Z,aseprite,https://api.github.com/repos/aseprite/psd,https://api.github.com/repos/aseprite/psd/commits,https://api.github.com/repos/aseprite/psd/languages,
136503278,rtaudio,"('rtaudio',)",136503278,2018-06-07T16:21:38Z,2018-06-07T16:21:41Z,aseprite,https://api.github.com/repos/aseprite/rtaudio,https://api.github.com/repos/aseprite/rtaudio/commits,https://api.github.com/repos/aseprite/rtaudio/languages,"C++, C, Objective-C, Go, M4, CMake, Python, Shell, Makefile"
149838692,sfntly,"('sfntly',)",149838692,2018-09-22T02:33:50Z,2018-09-22T02:33:55Z,aseprite,https://api.github.com/repos/aseprite/sfntly,https://api.github.com/repos/aseprite/sfntly/commits,https://api.github.com/repos/aseprite/sfntly/languages,"Java, C++, Python, CMake, C"
25166553,simpleini,"('simpleini',)",25166553,2014-10-13T16:16:53Z,2020-04-15T07:50:50Z,aseprite,https://api.github.com/repos/aseprite/simpleini,https://api.github.com/repos/aseprite/simpleini/commits,https://api.github.com/repos/aseprite/simpleini/languages,"C++, C, Objective-C, Batchfile, Makefile, CMake"
45053736,skia,"('skia',)",45053736,2015-10-27T16:20:42Z,2020-12-19T15:24:49Z,aseprite,https://api.github.com/repos/aseprite/skia,https://api.github.com/repos/aseprite/skia/commits,https://api.github.com/repos/aseprite/skia/languages,"C++, HTML, Assembly, Python, C, JavaScript, Objective-C++, Java, Go, PHP, GLSL, Shell, Objective-C, Lua, Starlark, Dockerfile, Makefile, NASL, C#, CSS, CMake, Lex, PowerShell, Batchfile"
143779536,sol2,"('sol2',)",143779536,2018-08-06T20:26:56Z,2018-08-06T20:26:59Z,aseprite,https://api.github.com/repos/aseprite/sol2,https://api.github.com/repos/aseprite/sol2/commits,https://api.github.com/repos/aseprite/sol2/languages,"C++, CMake, C, Shell, Python, Dockerfile, Meson"
34225901,sourcecode,"('sourcecode',)",34225901,2015-04-19T21:51:00Z,2020-12-31T09:50:30Z,aseprite,https://api.github.com/repos/aseprite/sourcecode,https://api.github.com/repos/aseprite/sourcecode/commits,https://api.github.com/repos/aseprite/sourcecode/languages,
142472878,spanish-extension,"('spanish-extension',)",142472878,2018-07-26T17:29:01Z,2018-07-26T17:29:01Z,aseprite,https://api.github.com/repos/aseprite/spanish-extension,https://api.github.com/repos/aseprite/spanish-extension/commits,https://api.github.com/repos/aseprite/spanish-extension/languages,
312822476,spdlog,"('spdlog',)",312822476,2020-11-14T13:27:42Z,2020-11-14T13:27:43Z,aseprite,https://api.github.com/repos/aseprite/spdlog,https://api.github.com/repos/aseprite/spdlog/commits,https://api.github.com/repos/aseprite/spdlog/languages,"C++, CMake, C, Shell, Python, Objective-C"
34698350,stb,"('stb',)",34698350,2015-04-28T00:17:33Z,2020-06-22T07:19:29Z,aseprite,https://api.github.com/repos/aseprite/stb,https://api.github.com/repos/aseprite/stb/commits,https://api.github.com/repos/aseprite/stb/languages,"C, C++"
72220377,stringencoders,"('stringencoders',)",72220377,2016-10-28T15:41:32Z,2018-06-09T15:24:28Z,aseprite,https://api.github.com/repos/aseprite/stringencoders,https://api.github.com/repos/aseprite/stringencoders/commits,https://api.github.com/repos/aseprite/stringencoders/languages,"Objective-C, C, C++, JavaScript, HTML, Python, Makefile, CSS, Shell, M4"
132401531,tests,"('tests',)",132401531,2018-05-07T03:20:36Z,2020-10-22T14:39:09Z,aseprite,https://api.github.com/repos/aseprite/tests,https://api.github.com/repos/aseprite/tests/commits,https://api.github.com/repos/aseprite/tests/languages,"Lua, Shell"
249095674,tga,"('tga',)",249095674,2020-03-22T02:01:53Z,2021-01-01T21:16:23Z,aseprite,https://api.github.com/repos/aseprite/tga,https://api.github.com/repos/aseprite/tga/commits,https://api.github.com/repos/aseprite/tga/languages,"C++, CMake"
88646322,themes,"('themes',)",88646322,2017-04-18T16:21:19Z,2020-12-26T10:14:00Z,aseprite,https://api.github.com/repos/aseprite/themes,https://api.github.com/repos/aseprite/themes/commits,https://api.github.com/repos/aseprite/themes/languages,
138894052,tinyexpr,"('tinyexpr',)",138894052,2018-06-27T14:37:36Z,2019-12-26T03:27:56Z,aseprite,https://api.github.com/repos/aseprite/tinyexpr,https://api.github.com/repos/aseprite/tinyexpr/commits,https://api.github.com/repos/aseprite/tinyexpr/languages,"C, Makefile"
27246201,tinythreadpp,"('tinythreadpp',)",27246201,2014-11-28T00:43:30Z,2020-12-30T22:50:17Z,aseprite,https://api.github.com/repos/aseprite/tinythreadpp,https://api.github.com/repos/aseprite/tinythreadpp/commits,https://api.github.com/repos/aseprite/tinythreadpp/languages,"message, documentation_url"
84114011,tinyxml2,"('tinyxml2',)",84114011,2017-03-06T19:48:02Z,2017-03-06T19:48:04Z,aseprite,https://api.github.com/repos/aseprite/tinyxml2,https://api.github.com/repos/aseprite/tinyxml2/commits,https://api.github.com/repos/aseprite/tinyxml2/languages,"message, documentation_url"
94725128,undo,"('undo',)",94725128,2017-06-19T01:41:24Z,2020-06-06T16:10:49Z,aseprite,https://api.github.com/repos/aseprite/undo,https://api.github.com/repos/aseprite/undo/commits,https://api.github.com/repos/aseprite/undo/languages,"message, documentation_url"
144299026,vcpkg,"('vcpkg',)",144299026,2018-08-10T14:52:03Z,2020-05-22T14:08:37Z,aseprite,https://api.github.com/repos/aseprite/vcpkg,https://api.github.com/repos/aseprite/vcpkg/commits,https://api.github.com/repos/aseprite/vcpkg/languages,"message, documentation_url"
255483585,wil,"('wil',)",255483585,2020-04-14T01:46:14Z,2020-04-14T01:46:16Z,aseprite,https://api.github.com/repos/aseprite/wil,https://api.github.com/repos/aseprite/wil/commits,https://api.github.com/repos/aseprite/wil/languages,"message, documentation_url"
55091714,zlib,"('zlib',)",55091714,2016-03-30T19:34:19Z,2018-03-22T14:27:37Z,aseprite,https://api.github.com/repos/aseprite/zlib,https://api.github.com/repos/aseprite/zlib/commits,https://api.github.com/repos/aseprite/zlib/languages,"message, documentation_url"
